// Jest Snapshot v1, https://goo.gl/fbAQLP

exports[`Profilecard AkProfilecard status property should match snapshot when status=closed and status modified date is defined 1`] = `
<MockMessagesIntlProvider>
  <HeightTransitionWrapper>
    <styled.div
      isDisabledUser={true}
    >
      <styled.div>
        <WithAnalyticsContext(WithAnalyticsEvents(mapProps(withPseudoState(Avatar))))
          borderColor="#FFFFFF"
          size="xlarge"
          src={null}
        />
      </styled.div>
      <styled.div>
        <styled.div>
          <styled.span
            isDisabledAccount={true}
            noMeta={true}
          >
            jscrazy
          </styled.span>
          <styled.div>
            <Lozenge
              appearance="default"
              isBold={true}
              maxWidth={200}
            >
              <FormattedMessage
                defaultMessage="Account deleted"
                description="A text in a grey lozenge shows that this user is closed/deleted"
                id="pt.profile-card.closed.account"
                values={Object {}}
              />
            </Lozenge>
          </styled.div>
          <styled.div>
            <p>
              <FormattedMessage
                defaultMessage="You can no longer collaborate with this person."
                description="A first sentence of a long text explains this user is inactive/closed"
                id="pt.profile-card.general.msg.disabled.user"
                values={Object {}}
              />
               
              <FormattedMessage
                defaultMessage="Their account has been deleted."
                description="A long text explains this user is closed when we do not know the date of starting to close"
                id="pt.profile-card.closed.account.no.date"
                values={Object {}}
              />
            </p>
          </styled.div>
        </styled.div>
        <styled.div />
      </styled.div>
    </styled.div>
  </HeightTransitionWrapper>
</MockMessagesIntlProvider>
`;

exports[`Profilecard AkProfilecard status property should match snapshot when status=closed and status modified date is unknown 1`] = `
<MockMessagesIntlProvider>
  <HeightTransitionWrapper>
    <styled.div
      isDisabledUser={true}
    >
      <styled.div>
        <WithAnalyticsContext(WithAnalyticsEvents(mapProps(withPseudoState(Avatar))))
          borderColor="#FFFFFF"
          size="xlarge"
          src={null}
        />
      </styled.div>
      <styled.div>
        <styled.div>
          <styled.span
            isDisabledAccount={true}
            noMeta={true}
          >
            jscrazy
          </styled.span>
          <styled.div>
            <Lozenge
              appearance="default"
              isBold={true}
              maxWidth={200}
            >
              <FormattedMessage
                defaultMessage="Account deleted"
                description="A text in a grey lozenge shows that this user is closed/deleted"
                id="pt.profile-card.closed.account"
                values={Object {}}
              />
            </Lozenge>
          </styled.div>
          <styled.div>
            <p>
              <FormattedMessage
                defaultMessage="You can no longer collaborate with this person."
                description="A first sentence of a long text explains this user is inactive/closed"
                id="pt.profile-card.general.msg.disabled.user"
                values={Object {}}
              />
               
              <FormattedMessage
                defaultMessage="Their account has been deleted."
                description="A long text explains this user is closed when we do not know the date of starting to close"
                id="pt.profile-card.closed.account.no.date"
                values={Object {}}
              />
            </p>
          </styled.div>
        </styled.div>
        <styled.div />
      </styled.div>
    </styled.div>
  </HeightTransitionWrapper>
</MockMessagesIntlProvider>
`;

exports[`Profilecard AkProfilecard status property should match snapshot when status=inactive and status modified date is defined 1`] = `
<MockMessagesIntlProvider>
  <HeightTransitionWrapper>
    <styled.div
      isDisabledUser={true}
    >
      <styled.div>
        <WithAnalyticsContext(WithAnalyticsEvents(mapProps(withPseudoState(Avatar))))
          borderColor="#FFFFFF"
          size="xlarge"
        />
      </styled.div>
      <styled.div>
        <styled.div>
          <styled.span
            isDisabledAccount={true}
            noMeta={true}
          >
            full name test
          </styled.span>
          <styled.div>
            <Lozenge
              appearance="default"
              isBold={true}
              maxWidth={200}
            >
              <FormattedMessage
                defaultMessage="Account deactivated"
                description="A text in a grey lozenge shows that this user is inactive"
                id="pt.profile-card.inactive.account"
                values={Object {}}
              />
            </Lozenge>
          </styled.div>
          <styled.div>
            <p>
              <FormattedMessage
                defaultMessage="You can no longer collaborate with this person."
                description="A first sentence of a long text explains this user is inactive/closed"
                id="pt.profile-card.general.msg.disabled.user"
                values={Object {}}
              />
               
              <FormattedMessage
                defaultMessage="Their account has been deactivated."
                description="A long text explains this user is inactive when we do not know the date of starting to deactivate"
                id="pt.profile-card.inactive.account.no.date"
                values={Object {}}
              />
            </p>
          </styled.div>
          <IconLabel
            icon="mention"
          >
            @jscrazy
          </IconLabel>
          <IconLabel
            icon="companyName"
          >
            Atlassian
          </IconLabel>
        </styled.div>
        <styled.div />
      </styled.div>
    </styled.div>
  </HeightTransitionWrapper>
</MockMessagesIntlProvider>
`;

exports[`Profilecard AkProfilecard status property should match snapshot when status=inactive and status modified date is unknown 1`] = `
<MockMessagesIntlProvider>
  <HeightTransitionWrapper>
    <styled.div
      isDisabledUser={true}
    >
      <styled.div>
        <WithAnalyticsContext(WithAnalyticsEvents(mapProps(withPseudoState(Avatar))))
          borderColor="#FFFFFF"
          size="xlarge"
        />
      </styled.div>
      <styled.div>
        <styled.div>
          <styled.span
            isDisabledAccount={true}
            noMeta={true}
          >
            full name test
          </styled.span>
          <styled.div>
            <Lozenge
              appearance="default"
              isBold={true}
              maxWidth={200}
            >
              <FormattedMessage
                defaultMessage="Account deactivated"
                description="A text in a grey lozenge shows that this user is inactive"
                id="pt.profile-card.inactive.account"
                values={Object {}}
              />
            </Lozenge>
          </styled.div>
          <styled.div>
            <p>
              <FormattedMessage
                defaultMessage="You can no longer collaborate with this person."
                description="A first sentence of a long text explains this user is inactive/closed"
                id="pt.profile-card.general.msg.disabled.user"
                values={Object {}}
              />
               
              <FormattedMessage
                defaultMessage="Their account has been deactivated."
                description="A long text explains this user is inactive when we do not know the date of starting to deactivate"
                id="pt.profile-card.inactive.account.no.date"
                values={Object {}}
              />
            </p>
          </styled.div>
          <IconLabel
            icon="mention"
          >
            @jscrazy
          </IconLabel>
          <IconLabel
            icon="companyName"
          >
            Atlassian
          </IconLabel>
        </styled.div>
        <styled.div />
      </styled.div>
    </styled.div>
  </HeightTransitionWrapper>
</MockMessagesIntlProvider>
`;
